{
 "actions": [],
 "autoname": "field:node_name",
 "creation": "2021-04-12 17:09:33.533650",
 "doctype": "DocType",
 "editable_grid": 1,
 "engine": "InnoDB",
 "field_order": [
  "node_name",
  "lft",
  "rgt",
  "is_group",
  "old_parent",
  "parent_node"
 ],
 "fields": [
  {
   "fieldname": "node_name",
   "fieldtype": "Data",
   "in_list_view": 1,
   "label": "Node Name",
   "reqd": 1,
   "unique": 1
  },
  {
   "fieldname": "lft",
   "fieldtype": "Int",
   "hidden": 1,
   "label": "Left",
   "no_copy": 1,
   "read_only": 1
  },
  {
   "fieldname": "rgt",
   "fieldtype": "Int",
   "hidden": 1,
   "label": "Right",
   "no_copy": 1,
   "read_only": 1
  },
  {
   "default": "0",
   "fieldname": "is_group",
   "fieldtype": "Check",
   "label": "Is Group"
  },
  {
   "fieldname": "old_parent",
   "fieldtype": "Link",
   "label": "Old Parent",
   "options": "Node"
  },
  {
   "fieldname": "parent_node",
   "fieldtype": "Link",
   "label": "Parent Node",
   "options": "Node"
  }
 ],
 "index_web_pages_for_search": 1,
 "is_tree": 1,
 "links": [],
 "modified": "2021-04-12 18:04:42.630177",
 "modified_by": "Administrator",
 "module": "temp_app",
 "name": "Node",
 "nsm_parent_field": "parent_node",
 "owner": "Administrator",
 "permissions": [
  {
   "create": 1,
   "delete": 1,
   "email": 1,
   "export": 1,
   "print": 1,
   "read": 1,
   "report": 1,
   "role": "System Manager",
   "share": 1,
   "write": 1
  },
  {
   "create": 1,
   "delete": 1,
   "email": 1,
   "export": 1,
   "print": 1,
   "read": 1,
   "report": 1,
   "role": "All",
   "share": 1,
   "write": 1
  }
 ],
 "sort_field": "modified",
 "sort_order": "DESC",
 "track_changes": 1
}