{
 "actions": [],
 "autoname": "area.##########",
 "creation": "2021-04-15 16:26:44.830848",
 "doctype": "DocType",
 "editable_grid": 1,
 "engine": "InnoDB",
 "field_order": [
  "area_name",
  "area_type",
  "parent_area",
  "lft",
  "rgt",
  "is_group",
  "old_parent",
  "area_status",
  "area_start_date",
  "area_complete_date"
 ],
 "fields": [
  {
   "fieldname": "area_name",
   "fieldtype": "Data",
   "in_list_view": 1,
   "label": "Area Name",
   "reqd": 1
  },
  {
   "fieldname": "lft",
   "fieldtype": "Int",
   "hidden": 1,
   "label": "Left",
   "no_copy": 1,
   "read_only": 1
  },
  {
   "fieldname": "rgt",
   "fieldtype": "Int",
   "hidden": 1,
   "label": "Right",
   "no_copy": 1,
   "read_only": 1
  },
  {
   "default": "0",
   "fieldname": "is_group",
   "fieldtype": "Check",
   "label": "Is Group"
  },
  {
   "fieldname": "old_parent",
   "fieldtype": "Link",
   "hidden": 1,
   "label": "Old Parent",
   "options": "Area"
  },
  {
   "allow_in_quick_entry": 1,
   "fieldname": "parent_area",
   "fieldtype": "Link",
   "label": "Parent Area",
   "options": "Area"
  },
  {
   "allow_in_quick_entry": 1,
   "fieldname": "area_type",
   "fieldtype": "Link",
   "label": "Area Type",
   "options": "Area Type",
   "reqd": 1
  },
  {
   "default": "Pending to Start",
   "fieldname": "area_status",
   "fieldtype": "Data",
   "label": "Area Status"
  },
  {
   "fieldname": "area_start_date",
   "fieldtype": "Data",
   "label": "Area Start Date"
  },
  {
   "fieldname": "area_complete_date",
   "fieldtype": "Data",
   "label": "Area Complete Date"
  }
 ],
 "index_web_pages_for_search": 1,
 "is_tree": 1,
 "links": [],
 "modified": "2021-04-25 12:35:19.755210",
 "modified_by": "Administrator",
 "module": "temp_app",
 "name": "Area",
 "nsm_parent_field": "parent_area",
 "owner": "Administrator",
 "permissions": [
  {
   "create": 1,
   "delete": 1,
   "email": 1,
   "export": 1,
   "print": 1,
   "read": 1,
   "report": 1,
   "role": "System Manager",
   "share": 1,
   "write": 1
  }
 ],
 "sort_field": "modified",
 "sort_order": "DESC",
 "title_field": "area_name",
 "track_changes": 1
}