{
 "actions": [],
 "autoname": "SUB.##########",
 "creation": "2021-04-12 15:15:54.378327",
 "doctype": "DocType",
 "editable_grid": 1,
 "engine": "InnoDB",
 "field_order": [
  "sub_name"
 ],
 "fields": [
  {
   "fieldname": "sub_name",
   "fieldtype": "Data",
   "label": "Sub Name"
  }
 ],
 "index_web_pages_for_search": 1,
 "istable": 1,
 "links": [],
 "modified": "2021-04-12 15:15:54.378327",
 "modified_by": "Administrator",
 "module": "temp_app",
 "name": "Sub Area",
 "owner": "Administrator",
 "permissions": [],
 "sort_field": "modified",
 "sort_order": "DESC",
 "track_changes": 1
}