{
 "actions": [],
 "autoname": "field:area_name",
 "creation": "2021-04-06 15:59:47.537219",
 "doctype": "DocType",
 "editable_grid": 1,
 "engine": "InnoDB",
 "field_order": [
  "project_name",
  "section_break_2",
  "area_type",
  "column_break_4",
  "area_name",
  "column_break_6",
  "area_level",
  "column_break_8",
  "master_area_name",
  "section_break_10",
  "length",
  "column_break_12",
  "width",
  "column_break_14",
  "height",
  "column_break_16",
  "total_area",
  "section_break_18",
  "unit",
  "section_break_20",
  "area_status",
  "column_break_22",
  "area_start_date",
  "column_break_24",
  "area_complete_date",
  "section_break_26",
  "bulk_geneated",
  "section_break_28",
  "star_marked",
  "section_break_30",
  "comment",
  "tbl"
 ],
 "fields": [
  {
   "fieldname": "project_name",
   "fieldtype": "Data",
   "in_standard_filter": 1,
   "label": "Project Name"
  },
  {
   "fieldname": "section_break_2",
   "fieldtype": "Section Break"
  },
  {
   "fieldname": "area_type",
   "fieldtype": "Link",
   "label": "Area Type",
   "options": "Area Type Master"
  },
  {
   "fieldname": "column_break_4",
   "fieldtype": "Column Break"
  },
  {
   "fieldname": "area_name",
   "fieldtype": "Data",
   "label": "Area Name",
   "unique": 1
  },
  {
   "fieldname": "column_break_6",
   "fieldtype": "Column Break"
  },
  {
   "fieldname": "area_level",
   "fieldtype": "Select",
   "label": "Area Level",
   "options": "Master-area\nSub-area"
  },
  {
   "fieldname": "column_break_8",
   "fieldtype": "Column Break"
  },
  {
   "fieldname": "master_area_name",
   "fieldtype": "Link",
   "label": "Master Area Name",
   "options": "Area Master"
  },
  {
   "fieldname": "section_break_10",
   "fieldtype": "Section Break"
  },
  {
   "fieldname": "length",
   "fieldtype": "Data",
   "label": "Length"
  },
  {
   "fieldname": "column_break_12",
   "fieldtype": "Column Break"
  },
  {
   "fieldname": "width",
   "fieldtype": "Data",
   "label": "width"
  },
  {
   "fieldname": "column_break_14",
   "fieldtype": "Column Break"
  },
  {
   "fieldname": "height",
   "fieldtype": "Data",
   "label": "height"
  },
  {
   "fieldname": "column_break_16",
   "fieldtype": "Column Break"
  },
  {
   "fieldname": "total_area",
   "fieldtype": "Data",
   "label": "Total Area"
  },
  {
   "fieldname": "section_break_18",
   "fieldtype": "Column Break"
  },
  {
   "fieldname": "unit",
   "fieldtype": "Link",
   "label": "Unit",
   "options": "Unit Master"
  },
  {
   "fieldname": "section_break_20",
   "fieldtype": "Section Break"
  },
  {
   "fieldname": "area_status",
   "fieldtype": "Link",
   "label": "Area Status",
   "options": "Area Status"
  },
  {
   "fieldname": "column_break_22",
   "fieldtype": "Column Break"
  },
  {
   "fieldname": "area_start_date",
   "fieldtype": "Date",
   "label": "Area Start Date"
  },
  {
   "fieldname": "column_break_24",
   "fieldtype": "Column Break"
  },
  {
   "fieldname": "area_complete_date",
   "fieldtype": "Date",
   "label": "Area Complete Date"
  },
  {
   "fieldname": "section_break_26",
   "fieldtype": "Section Break"
  },
  {
   "default": "0",
   "fieldname": "bulk_geneated",
   "fieldtype": "Check",
   "label": "Bulk Geneated"
  },
  {
   "fieldname": "section_break_28",
   "fieldtype": "Column Break"
  },
  {
   "default": "0",
   "fieldname": "star_marked",
   "fieldtype": "Check",
   "label": "Star Marked"
  },
  {
   "fieldname": "section_break_30",
   "fieldtype": "Section Break"
  },
  {
   "fieldname": "comment",
   "fieldtype": "Small Text",
   "label": "comment"
  },
  {
   "fieldname": "tbl",
   "fieldtype": "Table",
   "label": "Tbl",
   "options": "child_tbl"
  }
 ],
 "index_web_pages_for_search": 1,
 "links": [],
 "modified": "2021-04-09 18:49:24.338123",
 "modified_by": "Administrator",
 "module": "temp_app",
 "name": "Area Master",
 "owner": "Administrator",
 "permissions": [
  {
   "create": 1,
   "delete": 1,
   "email": 1,
   "export": 1,
   "print": 1,
   "read": 1,
   "report": 1,
   "role": "System Manager",
   "share": 1,
   "write": 1
  }
 ],
 "sort_field": "modified",
 "sort_order": "DESC",
 "title_field": "area_name",
 "track_changes": 1
}